{
    "vapidKeys": {
      "publicKey": "BJljqgZ7lRV2TinLrycKaFYRhKQROFf_1KhKgn-y7hTWZXWSWOeCA4dwL0MZzsctLNOrE7lol1Ft_SPNe3M2phI",
      "privateKey": "kNbPrn1M1w0eO9I88oPCtZYQRjOT1pdQg_rCrHn93x4"
    }
}